Web Extraction
…
[[3]]
# A tibble: 31 × 5
   Group                            % with college deg…¹ % wit…² % wit…³ % wit…⁴
   <chr>                                           <int>   <int>   <int>   <int>
 1 Hindu                                              77      11      10       2
 2 Unitarian Universalist                             67      23       9       1
 3 Jewish                                             59      22      16       3
 4 Anglican                                           59      32       8       1
 5 Episcopal Church (United States)                   56      28      14       2
 6 Presbyterian Church (USA)                          47      25      24       3
 7 Buddhist                                           47      33      18       2
 8 United Church of Christ                            46      21      26       7
 9 Atheist                                            43      31      22       4
10 Agnostic                                           42      36      21       1
# … with 21 more rows, and abbreviated variable names ¹​`% with college degree`,
#   ²​`% with some college`, ³​`% with high school diploma`,
#   ⁴​`% with less than high school diploma`

As you can see, this is lengthy and fairly messy due to different characters ($ and ,). I was able to manipulate this data set and transform it into three different columns that are useful to the graph I am choosing to create:

# A tibble: 158 × 3
   year  Level                    Income
   <chr> <fct>                     <dbl>
 1 1991  Overall Median            56965
 2 1991  Less Than 9th Grade       24270
 3 1991  High School Drop Out      32189
 4 1991  High School Graduate      52293
 5 1991  Some College              64525
 6 1991  Associate Degree          72877
 7 1991  Bachelors Degree          89407
 8 1991  Bachelors Degree Or More  95952
 9 1991  Masters Degree           101281
10 1991  Professional Degree      143090
# … with 148 more rows
…
